{
  "project_info": {
    "project_number": "641377217647",
    "firebase_url": "https://caribpay-e4bc2.firebaseio.com",
    "project_id": "caribpay-e4bc2",
    "storage_bucket": "caribpay-e4bc2.appspot.com"
  },
  "client": [
    {
      "client_info": {
        "mobilesdk_app_id": "1:641377217647:android:04079b0e46665cacaaf19a",
        "android_client_info": {
          "package_name": "carib.pay.com"
        }
      },
      "oauth_client": [
        {
          "client_id": "641377217647-0gg3t4vfjskbvh25r9clcqqedmhtthta.apps.googleusercontent.com",
          "client_type": 1,
          "android_info": {
            "package_name": "carib.pay.com",
            "certificate_hash": "b254b7d8f87f51c52a268f484a7b5288ab9e7a81"
          }
        },
        {
          "client_id": "641377217647-tqvgu91ahrfn4tppijidqgp7ml5c8lu7.apps.googleusercontent.com",
          "client_type": 1,
          "android_info": {
            "package_name": "carib.pay.com",
            "certificate_hash": "db9d7413917448e9ad9d1e74a1d47dcb9633c1c2"
          }
        },
        {
          "client_id": "641377217647-0hn7dqau3jkgh6i56fonul3c6pbr2q44.apps.googleusercontent.com",
          "client_type": 1,
          "android_info": {
            "package_name": "carib.pay.com",
            "certificate_hash": "5e8f16062ea3cd2c4a0d547876baa6f38cabf625"
          }
        },
        {
          "client_id": "641377217647-oaarlmdva8q2keicuuf1vdfabmobo6r2.apps.googleusercontent.com",
          "client_type": 3
        }
      ],
      "api_key": [
        {
          "current_key": "AIzaSyDyjr5-dUdhTVjVUWxo7YmI8qgEU9SLi70"
        }
      ],
      "services": {
        "appinvite_service": {
          "other_platform_oauth_client": [
            {
              "client_id": "641377217647-oaarlmdva8q2keicuuf1vdfabmobo6r2.apps.googleusercontent.com",
              "client_type": 3
            },
            {
              "client_id": "641377217647-271dfmcmtqglb1088njk4dvosp5lpm03.apps.googleusercontent.com",
              "client_type": 2,
              "ios_info": {
                "bundle_id": "carib.pay.com"
              }
            }
          ]
        }
      }
    },
    {
      "client_info": {
        "mobilesdk_app_id": "1:641377217647:android:afd042a6b64f4dedaaf19a",
        "android_client_info": {
          "package_name": "io.CaribPay"
        }
      },
      "oauth_client": [
        {
          "client_id": "641377217647-oaarlmdva8q2keicuuf1vdfabmobo6r2.apps.googleusercontent.com",
          "client_type": 3
        }
      ],
      "api_key": [
        {
          "current_key": "AIzaSyDyjr5-dUdhTVjVUWxo7YmI8qgEU9SLi70"
        }
      ],
      "services": {
        "appinvite_service": {
          "other_platform_oauth_client": [
            {
              "client_id": "641377217647-oaarlmdva8q2keicuuf1vdfabmobo6r2.apps.googleusercontent.com",
              "client_type": 3
            },
            {
              "client_id": "641377217647-271dfmcmtqglb1088njk4dvosp5lpm03.apps.googleusercontent.com",
              "client_type": 2,
              "ios_info": {
                "bundle_id": "carib.pay.com"
              }
            }
          ]
        }
      }
    }
  ],
  "configuration_version": "1"
}